<?xml version="1.0" standalone="no"?>
<!DOCTYPE svg PUBLIC "-//W3C//DTD SVG 1.1//EN" "http://www.w3.org/Graphics/SVG/1.1/DTD/svg11.dtd" >
<svg xmlns="http://www.w3.org/2000/svg">
<metadata>
<json>
{
	"fontFamily": "neoo",
	"majorVersion": 1,
	"minorVersion": 0,
	"version": "Version 1.0",
	"fontId": "neoo",
	"psName": "neoo",
	"subFamily": "Regular",
	"fullName": "neoo",
	"description": "Font generated by IcoMoon."
}
</json>
</metadata>
<defs>
<font id="neoo" horiz-adv-x="512">
<font-face units-per-em="512" ascent="480" descent="-32" />
<missing-glyph horiz-adv-x="512" />
<glyph unicode="&#x20;" d="" horiz-adv-x="256" />
<glyph unicode="&#xf053;" d="M44 237.714q0 7.428 5.428 12.857l212 212q5.428 5.429 12.857 5.429t12.857-5.429l47.428-47.428q5.428-5.428 5.428-12.857t-5.428-12.857l-151.714-151.714 151.714-151.714q5.428-5.428 5.428-12.857t-5.428-12.857l-47.428-47.428q-5.428-5.428-12.857-5.428t-12.857 5.428l-212 212q-5.428 5.428-5.428 12.857z" horiz-adv-x="366" />
<glyph unicode="&#xf054;" d="M25.715 73.143q0 7.428 5.428 12.857l151.714 151.714-151.714 151.714q-5.428 5.428-5.428 12.857t5.428 12.857l47.428 47.428q5.428 5.428 12.857 5.428t12.857-5.428l212-212q5.428-5.428 5.428-12.857t-5.428-12.857l-212-212q-5.428-5.428-12.857-5.428t-12.857 5.428l-47.428 47.428q-5.428 5.428-5.428 12.857z" horiz-adv-x="366" />
</font></defs></svg>