<?xml version="1.0" encoding="utf-8"?>
<!-- Generator: Adobe Illustrator 16.0.4, SVG Export Plug-In . SVG Version: 6.00 Build 0)  -->
<!DOCTYPE svg PUBLIC "-//W3C//DTD SVG 1.1//EN" "http://www.w3.org/Graphics/SVG/1.1/DTD/svg11.dtd">
<svg version="1.1" id="Layer_1" xmlns="http://www.w3.org/2000/svg" xmlns:xlink="http://www.w3.org/1999/xlink" x="0px" y="0px"
	 width="93px" height="93px" viewBox="0 0 93 93" enable-background="new 0 0 93 93" xml:space="preserve">
<g>
	<path fill="#7D4199" d="M64.121,61.266c-1.734,0-3.469-1.815-3.469-4.641v-0.134c0-2.892,1.534-4.64,3.469-4.64
		c1.867,0,3.468,1.815,3.468,4.64v0.134C67.589,59.518,65.855,61.266,64.121,61.266 M30.432,39.209c-1.734,0-3.469-1.816-3.469-4.64
		v-0.135c0-2.891,1.534-4.64,3.469-4.64c1.868,0,3.469,1.816,3.469,4.64v0.135C33.901,37.46,32.167,39.209,30.432,39.209
		 M64.121,69.807c7.605,0,12.741-5.985,12.741-13.182v-0.134c0-7.195-4.936-13.18-12.741-13.18s-12.742,5.985-12.742,13.18v0.134
		C51.379,63.821,56.517,69.807,64.121,69.807 M23.294,69.066h10.073l37.891-47.072H61.186L23.294,69.066z M30.432,47.749
		c7.605,0,12.742-5.985,12.742-13.18v-0.135c0-7.195-4.937-13.18-12.742-13.18c-7.805,0-12.742,5.985-12.742,13.18v0.135
		C17.69,41.764,22.827,47.749,30.432,47.749"/>
	<path fill="#7D4199" d="M90.868,93H2.405C1.077,93,0,91.923,0,90.595V2.132c0-1.328,1.077-2.405,2.405-2.405h88.463
		c1.328,0,2.405,1.077,2.405,2.405v88.463C93.273,91.923,92.196,93,90.868,93z M4.81,88.189h83.653V4.537H4.81V88.189z"/>
</g>
</svg>
