[
        {
            "label": "CHI",
            "values": ["1.4%", "0.9%"]
        },
        {
            "label": "HOU",
            "values": ["2.5%", "3.3%"]
        },
        {
            "label": "MIA",
            "values": ["2.4%", "2.5%"]
        },
        {
            "label": "NYC",
            "values": ["2.2%", "2.0%"]
        },
        {
            "label": "SD",
            "values": ["1.2%", "2.3%"]
        },
        {
            "label": "US",
            "values": ["1.2%", "1.7%"]
        }
        
    ]