[
        {
            "label": "CHI",
            "values": ["0", "0"]
        },
        {
            "label": "HOU",
            "values": ["0", "0"]
        },
        {
            "label": "MIA",
            "values": ["0", "0"]
        },
        {
            "label": "NYC",
            "values": ["0", "0"]
        },
        {
            "label": "SD",
            "values": ["0", "0"]
        }
        
    ]