[
        {
            "label": "CHI",
            "values": ["2.0%", "3.0%"]
        },
        {
            "label": "HOU",
            "values": ["2.5%", "2.8%"]
        },
        {
            "label": "MIA",
            "values": ["3.0%", "5.4%"]
        },
        {
            "label": "NYC",
            "values": ["-1.2%", "5.0%"]
        },
        {
            "label": "SD",
            "values": ["-0.3%", "3.6%"]
        },
        {
            "label": "US",
            "values": ["2.1%", "3.0%"]
        }
        
    ]