[
        {
            "label": "CHI",
            "values": ["17.6%", "17.7%"]
        },
        {
            "label": "HOU",
            "values": ["19.6%", "18.5%"]
        },
        {
            "label": "MIA",
            "values": ["20.9%", "21.0%"]
        },
        {
            "label": "NYC",
            "values": ["18.3%", "18.9%"]
        },
        {
            "label": "SD",
            "values": ["15.1%", "15.2%"]
        },
        {
            "label": "US",
            "values": ["15.9%", "15.8%"]
        }
        
    ]